[
  {
    "id": 1,
    "location": "Pimple Saudagar",
    "gender": "Male",
    "bedsavailable": "2",
    "image": "assets/img/demo/property-1.jpg"
  },
  {
    "id": 2,
    "location": "Pimple Saudagar",
    "gender": "Male",
    "bedsavailable": "2",
    "image": "assets/img/demo/property-1.jpg"
  },
  {
    "id": 3,
    "location": "Pimple Saudagar",
    "gender": "Male",
    "bedsavailable": "2",
    "image": "assets/img/demo/property-1.jpg"
  },
  {
    "id": 4,
    "location": "Pimple Saudagar",
    "gender": "Male",
    "bedsavailable": "2",
    "image": "assets/img/demo/property-1.jpg"
  },
  {
    "id": 5,
    "location": "Pimple Saudagar",
    "gender": "Male",
    "bedsavailable": "2",
    "image": "assets/img/demo/property-1.jpg"
  },
  {
    "id": 6,
    "location": "Pimple Saudagar",
    "gender": "Male",
    "bedsavailable": "2",
    "image": "assets/img/demo/property-1.jpg"
  }
]
